EESchema Schematic File Version 4
LIBS:Controller-cache
EELAYER 29 0
EELAYER END
$Descr A4 11693 8268
encoding utf-8
Sheet 1 1
Title ""
Date ""
Rev ""
Comp ""
Comment1 ""
Comment2 ""
Comment3 ""
Comment4 ""
$EndDescr
$Comp
L atmel:ATMEGA328-AU U2
U 1 1 5C95B969
P 6500 2275
F 0 "U2" H 6550 3642 50  0000 C CNN
F 1 "ATMEGA328-AU" H 6550 3551 50  0000 C CNN
F 2 "Housings_QFP:TQFP-32_7x7mm_Pitch0.8mm" H 6500 2275 50  0001 C CIN
F 3 "http://www.atmel.com/images/atmel-8271-8-bit-avr-microcontroller-atmega48a-48pa-88a-88pa-168a-168pa-328-328p_datasheet.pdf" H 6500 2275 50  0001 C CNN
	1    6500 2275
	1    0    0    -1  
$EndComp
$Comp
L atmel:AVR-ISP-6 J14
U 1 1 5C95FA25
P 10350 1475
F 0 "J14" H 10337 1840 50  0000 C CNN
F 1 "ISP" H 10337 1749 50  0000 C CNN
F 2 "Pin_Headers:Pin_Header_Straight_2x03_Pitch2.54mm" V 9830 1515 50  0001 C CNN
F 3 "" H 10325 1475 50  0001 C CNN
	1    10350 1475
	1    0    0    -1  
$EndComp
Text GLabel 7600 3175 2    50   Input ~ 0
TOUCH_PIN_CHARGE
Text GLabel 7600 3475 2    50   Input ~ 0
LIMIT_OPEN
Text GLabel 7600 1375 2    50   Input ~ 0
LIMIT_CLOSE
Text GLabel 7600 3275 2    50   Input ~ 0
STEPPER_DIR
Text GLabel 7600 3075 2    50   Input ~ 0
STEPPER_EN
Text GLabel 7600 3375 2    50   Input ~ 0
TOUCH_PIN_SENSE
Wire Wire Line
	7600 1175 7500 1175
Wire Wire Line
	7600 1275 7500 1275
Wire Wire Line
	7500 1375 7600 1375
Wire Wire Line
	7600 3175 7500 3175
Wire Wire Line
	7600 3275 7500 3275
Wire Wire Line
	7600 3375 7500 3375
$Comp
L power:VCC #PWR018
U 1 1 5C967886
P 5550 1050
F 0 "#PWR018" H 5550 900 50  0001 C CNN
F 1 "VCC" H 5567 1223 50  0000 C CNN
F 2 "" H 5550 1050 50  0001 C CNN
F 3 "" H 5550 1050 50  0001 C CNN
	1    5550 1050
	1    0    0    -1  
$EndComp
$Comp
L power:GND #PWR020
U 1 1 5C9678C7
P 5550 3575
F 0 "#PWR020" H 5550 3325 50  0001 C CNN
F 1 "GND" H 5555 3402 50  0000 C CNN
F 2 "" H 5550 3575 50  0001 C CNN
F 3 "" H 5550 3575 50  0001 C CNN
	1    5550 3575
	1    0    0    -1  
$EndComp
Wire Wire Line
	5600 3275 5550 3275
Wire Wire Line
	5550 3275 5550 3375
Wire Wire Line
	5600 3375 5550 3375
Connection ~ 5550 3375
Wire Wire Line
	5550 3375 5550 3475
Wire Wire Line
	5600 3475 5550 3475
Connection ~ 5550 3475
Wire Wire Line
	5550 3475 5550 3575
Wire Wire Line
	5550 1050 5550 1175
Wire Wire Line
	5550 1275 5600 1275
Wire Wire Line
	5600 1175 5550 1175
Connection ~ 5550 1175
Wire Wire Line
	5550 1175 5550 1275
Text GLabel 7600 2875 2    50   Input ~ 0
TXD
Text GLabel 7600 2775 2    50   Input ~ 0
RXD
Wire Wire Line
	7500 2775 7600 2775
Wire Wire Line
	7500 2875 7600 2875
Wire Wire Line
	5550 1275 5550 1475
Wire Wire Line
	5550 1475 5600 1475
Connection ~ 5550 1275
Text GLabel 7600 1575 2    50   Input ~ 0
MISO
Text GLabel 7600 1675 2    50   Input ~ 0
SCK
Text GLabel 7600 1475 2    50   Input ~ 0
MOSI
Text GLabel 9300 2625 2    50   Input ~ 0
RST
Wire Wire Line
	9300 2625 9175 2625
Wire Wire Line
	7600 1675 7500 1675
$Comp
L Device:Crystal_Small Y1
U 1 1 5C99B95C
P 8675 2075
F 0 "Y1" H 8875 2125 50  0000 C CNN
F 1 "12MHz" H 8375 2100 50  0000 C CNN
F 2 "Crystals:Crystal_SMD_HC49-SD" H 8675 2075 50  0001 R CNN
F 3 "~" H 8675 2075 50  0001 C CNN
	1    8675 2075
	-1   0    0    -1  
$EndComp
$Comp
L Device:C_Small C6
U 1 1 5C99B962
P 8825 2225
F 0 "C6" H 8675 2300 50  0000 L CNN
F 1 "22pF" H 8625 2150 50  0000 L CNN
F 2 "Capacitors_SMD:C_0603_HandSoldering" H 8825 2225 50  0001 C CNN
F 3 "~" H 8825 2225 50  0001 C CNN
	1    8825 2225
	-1   0    0    -1  
$EndComp
$Comp
L Device:C_Small C5
U 1 1 5C99B968
P 8525 2225
F 0 "C5" H 8550 2300 50  0000 L CNN
F 1 "22pF" H 8325 2150 50  0000 L CNN
F 2 "Capacitors_SMD:C_0603_HandSoldering" H 8525 2225 50  0001 C CNN
F 3 "~" H 8525 2225 50  0001 C CNN
	1    8525 2225
	-1   0    0    -1  
$EndComp
Wire Wire Line
	8825 1775 8825 1875
Wire Wire Line
	8525 1875 8525 2075
Wire Wire Line
	8775 2075 8825 2075
Connection ~ 8825 2075
Wire Wire Line
	8825 2075 8825 2125
Connection ~ 8525 2075
Wire Wire Line
	8525 2075 8525 2125
$Comp
L power:GND #PWR031
U 1 1 5C99B976
P 8825 2375
F 0 "#PWR031" H 8825 2125 50  0001 C CNN
F 1 "GND" H 8830 2202 50  0000 C CNN
F 2 "" H 8825 2375 50  0001 C CNN
F 3 "" H 8825 2375 50  0001 C CNN
	1    8825 2375
	-1   0    0    -1  
$EndComp
$Comp
L power:GND #PWR029
U 1 1 5C99B97C
P 8525 2375
F 0 "#PWR029" H 8525 2125 50  0001 C CNN
F 1 "GND" H 8530 2202 50  0000 C CNN
F 2 "" H 8525 2375 50  0001 C CNN
F 3 "" H 8525 2375 50  0001 C CNN
	1    8525 2375
	-1   0    0    -1  
$EndComp
Wire Wire Line
	8825 2325 8825 2375
Wire Wire Line
	8525 2325 8525 2375
Wire Wire Line
	7500 1875 8525 1875
$Comp
L Device:R R9
U 1 1 5C9BAB84
P 9175 2400
F 0 "R9" H 9245 2446 50  0000 L CNN
F 1 "10K" H 9245 2355 50  0000 L CNN
F 2 "Resistors_SMD:R_0603_HandSoldering" V 9105 2400 50  0001 C CNN
F 3 "~" H 9175 2400 50  0001 C CNN
	1    9175 2400
	1    0    0    -1  
$EndComp
$Comp
L power:VCC #PWR032
U 1 1 5C9BACEF
P 9175 2175
F 0 "#PWR032" H 9175 2025 50  0001 C CNN
F 1 "VCC" H 9192 2348 50  0000 C CNN
F 2 "" H 9175 2175 50  0001 C CNN
F 3 "" H 9175 2175 50  0001 C CNN
	1    9175 2175
	1    0    0    -1  
$EndComp
Wire Wire Line
	9175 2175 9175 2250
Wire Wire Line
	9175 2550 9175 2625
Connection ~ 9175 2625
Wire Wire Line
	9175 2625 7500 2625
$Comp
L power:VCC #PWR034
U 1 1 5C9C237B
P 10725 975
F 0 "#PWR034" H 10725 825 50  0001 C CNN
F 1 "VCC" H 10742 1148 50  0000 C CNN
F 2 "" H 10725 975 50  0001 C CNN
F 3 "" H 10725 975 50  0001 C CNN
	1    10725 975 
	1    0    0    -1  
$EndComp
Wire Wire Line
	10725 1375 10725 1325
Wire Wire Line
	10725 975  10725 1025
Wire Wire Line
	10725 1375 10450 1375
$Comp
L power:GND #PWR035
U 1 1 5C9C8C3A
P 10725 1675
F 0 "#PWR035" H 10725 1425 50  0001 C CNN
F 1 "GND" H 10730 1502 50  0000 C CNN
F 2 "" H 10725 1675 50  0001 C CNN
F 3 "" H 10725 1675 50  0001 C CNN
	1    10725 1675
	1    0    0    -1  
$EndComp
Wire Wire Line
	10450 1575 10725 1575
Wire Wire Line
	10725 1575 10725 1675
Text GLabel 9825 1575 0    50   Input ~ 0
RST
Wire Wire Line
	10200 1575 9825 1575
Text GLabel 9825 1375 0    50   Input ~ 0
MISO
Text GLabel 10800 1475 2    50   Input ~ 0
MOSI
Text GLabel 9825 1475 0    50   Input ~ 0
SCK
Wire Wire Line
	10800 1475 10450 1475
Wire Wire Line
	10200 1475 9825 1475
Wire Wire Line
	10200 1375 9825 1375
NoConn ~ 5600 2525
NoConn ~ 5600 2625
$Comp
L Device:C_Small C4
U 1 1 5C9E602F
P 5550 1925
F 0 "C4" H 5575 2000 50  0000 L CNN
F 1 "100nF" H 5575 1850 50  0000 L CNN
F 2 "Capacitors_SMD:C_0603_HandSoldering" H 5550 1925 50  0001 C CNN
F 3 "~" H 5550 1925 50  0001 C CNN
	1    5550 1925
	-1   0    0    -1  
$EndComp
$Comp
L power:GND #PWR019
U 1 1 5C9E6035
P 5550 2075
F 0 "#PWR019" H 5550 1825 50  0001 C CNN
F 1 "GND" H 5555 1902 50  0000 C CNN
F 2 "" H 5550 2075 50  0001 C CNN
F 3 "" H 5550 2075 50  0001 C CNN
	1    5550 2075
	-1   0    0    -1  
$EndComp
Wire Wire Line
	5550 2025 5550 2075
Wire Wire Line
	5550 1825 5550 1775
Wire Wire Line
	5550 1775 5600 1775
$Comp
L Device:C_Small C3
U 1 1 5CA0AAB2
P 5300 1450
F 0 "C3" H 5175 1525 50  0000 L CNN
F 1 "100nF" H 5050 1375 50  0000 L CNN
F 2 "Capacitors_SMD:C_0603_HandSoldering" H 5300 1450 50  0001 C CNN
F 3 "~" H 5300 1450 50  0001 C CNN
	1    5300 1450
	-1   0    0    -1  
$EndComp
$Comp
L power:GND #PWR015
U 1 1 5CA0AAB8
P 5300 1600
F 0 "#PWR015" H 5300 1350 50  0001 C CNN
F 1 "GND" H 5305 1427 50  0000 C CNN
F 2 "" H 5300 1600 50  0001 C CNN
F 3 "" H 5300 1600 50  0001 C CNN
	1    5300 1600
	-1   0    0    -1  
$EndComp
Wire Wire Line
	5300 1550 5300 1600
Wire Wire Line
	5550 1275 5300 1275
Wire Wire Line
	5300 1275 5300 1350
$Comp
L Device:R R8
U 1 1 5CA1BF94
P 8675 1875
F 0 "R8" V 8625 2075 50  0000 C CNN
F 1 "1M" V 8750 1875 50  0000 C CNN
F 2 "Resistors_SMD:R_0603_HandSoldering" V 8605 1875 50  0001 C CNN
F 3 "~" H 8675 1875 50  0001 C CNN
	1    8675 1875
	0    1    1    0   
$EndComp
Connection ~ 8525 1875
Connection ~ 8825 1875
Wire Wire Line
	8825 1875 8825 2075
Wire Wire Line
	8525 2075 8575 2075
Wire Wire Line
	7500 1775 8825 1775
$Comp
L Device:D_Schottky D2
U 1 1 5CA45309
P 10725 1175
F 0 "D2" V 10679 1254 50  0000 L CNN
F 1 "MBR0520LT1G" H 10375 1425 50  0000 L CNN
F 2 "Diodes_SMD:D_SOD-123" H 10725 1175 50  0001 C CNN
F 3 "~" H 10725 1175 50  0001 C CNN
	1    10725 1175
	0    1    1    0   
$EndComp
Text GLabel 7600 2975 2    50   Input ~ 0
STEPPER_STEP
Wire Wire Line
	7600 2975 7500 2975
$Comp
L suf_module:BIGTREETECH_TMC2209 U1
U 1 1 5E0BA094
P 2425 6650
F 0 "U1" H 2425 7215 50  0000 C CNN
F 1 "BIGTREETECH_TMC2209" H 2425 7124 50  0000 C CNN
F 2 "suf_module:POLOLU_STEPPER" H 2425 6625 60  0001 C CNN
F 3 "" H 2425 6625 60  0001 C CNN
	1    2425 6650
	1    0    0    -1  
$EndComp
Wire Wire Line
	7500 1575 7600 1575
Wire Wire Line
	7500 1475 7600 1475
Text GLabel 1925 6900 0    50   Input ~ 0
STEPPER_STEP
Wire Wire Line
	2025 6900 1925 6900
Text GLabel 1900 6300 0    50   Input ~ 0
STEPPER_EN
Text GLabel 1925 7000 0    50   Input ~ 0
STEPPER_DIR
Wire Wire Line
	1925 7000 2025 7000
Wire Wire Line
	1900 6300 2025 6300
$Comp
L power:VCC #PWR013
U 1 1 5E166BA4
P 3775 1675
F 0 "#PWR013" H 3775 1525 50  0001 C CNN
F 1 "VCC" H 3792 1848 50  0000 C CNN
F 2 "" H 3775 1675 50  0001 C CNN
F 3 "" H 3775 1675 50  0001 C CNN
	1    3775 1675
	1    0    0    -1  
$EndComp
Wire Wire Line
	3775 1700 3775 1675
Text GLabel 3075 1700 0    50   Input ~ 0
VMOT
Text GLabel 3750 6300 2    50   Input ~ 0
VMOT
Wire Wire Line
	2825 6300 3675 6300
$Comp
L conn:Conn_01x04 J5
U 1 1 5E172EE7
P 3150 6600
F 0 "J5" H 3100 6800 50  0000 L CNN
F 1 "Stepper" H 3225 6700 50  0000 L CNN
F 2 "Connectors_JST:JST_EH_B04B-EH-A_04x2.50mm_Straight" H 3150 6600 50  0001 C CNN
F 3 "~" H 3150 6600 50  0001 C CNN
	1    3150 6600
	1    0    0    -1  
$EndComp
Wire Wire Line
	2825 6500 2950 6500
Wire Wire Line
	2825 6600 2950 6600
Wire Wire Line
	2825 6700 2950 6700
Wire Wire Line
	2825 6800 2950 6800
$Comp
L power:VCC #PWR010
U 1 1 5E17DF32
P 3325 6850
F 0 "#PWR010" H 3325 6700 50  0001 C CNN
F 1 "VCC" H 3342 7023 50  0000 C CNN
F 2 "" H 3325 6850 50  0001 C CNN
F 3 "" H 3325 6850 50  0001 C CNN
	1    3325 6850
	1    0    0    -1  
$EndComp
Wire Wire Line
	2825 6900 3325 6900
Wire Wire Line
	3325 6900 3325 6850
Wire Wire Line
	2825 7000 2875 7000
Wire Wire Line
	2875 7000 2875 6400
Wire Wire Line
	2875 6400 2825 6400
$Comp
L power:GND #PWR09
U 1 1 5E183F1C
P 2875 7050
F 0 "#PWR09" H 2875 6800 50  0001 C CNN
F 1 "GND" H 2880 6877 50  0000 C CNN
F 2 "" H 2875 7050 50  0001 C CNN
F 3 "" H 2875 7050 50  0001 C CNN
	1    2875 7050
	1    0    0    -1  
$EndComp
Wire Wire Line
	2875 7000 2875 7050
Connection ~ 2875 7000
$Comp
L Device:Jumper_NC_Small JP2
U 1 1 5E1B0BAB
P 1150 6250
F 0 "JP2" V 1050 6275 50  0000 L CNN
F 1 "MS1" V 1200 6300 50  0000 L CNN
F 2 "Pin_Headers:Pin_Header_Straight_1x02_Pitch2.54mm" H 1150 6250 50  0001 C CNN
F 3 "~" H 1150 6250 50  0001 C CNN
	1    1150 6250
	0    1    1    0   
$EndComp
$Comp
L Device:Jumper_NC_Small JP1
U 1 1 5E1B2A5F
P 1050 6250
F 0 "JP1" V 950 6100 50  0000 L CNN
F 1 "MS2" V 1100 6050 50  0000 L CNN
F 2 "Pin_Headers:Pin_Header_Straight_1x02_Pitch2.54mm" H 1050 6250 50  0001 C CNN
F 3 "~" H 1050 6250 50  0001 C CNN
	1    1050 6250
	0    1    1    0   
$EndComp
$Comp
L Device:R R1
U 1 1 5E1B6A9C
P 1050 7025
F 0 "R1" H 875 7075 50  0000 L CNN
F 1 "100K" H 800 6975 50  0000 L CNN
F 2 "Resistors_SMD:R_0603_HandSoldering" V 980 7025 50  0001 C CNN
F 3 "~" H 1050 7025 50  0001 C CNN
	1    1050 7025
	1    0    0    -1  
$EndComp
$Comp
L Device:R R2
U 1 1 5E1B8082
P 1150 7025
F 0 "R2" H 1220 7071 50  0000 L CNN
F 1 "100K" H 1220 6980 50  0000 L CNN
F 2 "Resistors_SMD:R_0603_HandSoldering" V 1080 7025 50  0001 C CNN
F 3 "~" H 1150 7025 50  0001 C CNN
	1    1150 7025
	1    0    0    -1  
$EndComp
$Comp
L power:GND #PWR03
U 1 1 5E1B9401
P 1100 7250
F 0 "#PWR03" H 1100 7000 50  0001 C CNN
F 1 "GND" H 1105 7077 50  0000 C CNN
F 2 "" H 1100 7250 50  0001 C CNN
F 3 "" H 1100 7250 50  0001 C CNN
	1    1100 7250
	1    0    0    -1  
$EndComp
Wire Wire Line
	1050 7175 1050 7225
Wire Wire Line
	1050 7225 1100 7225
Wire Wire Line
	1150 7225 1150 7175
Wire Wire Line
	1100 7250 1100 7225
Connection ~ 1100 7225
Wire Wire Line
	1100 7225 1150 7225
Wire Wire Line
	1050 6350 1050 6500
Wire Wire Line
	1150 6350 1150 6400
Wire Wire Line
	2025 6400 1150 6400
Connection ~ 1150 6400
Wire Wire Line
	1150 6400 1150 6875
Wire Wire Line
	2025 6500 1050 6500
Connection ~ 1050 6500
Wire Wire Line
	1050 6500 1050 6875
$Comp
L power:VCC #PWR02
U 1 1 5E1D1B59
P 1100 6075
F 0 "#PWR02" H 1100 5925 50  0001 C CNN
F 1 "VCC" H 1117 6248 50  0000 C CNN
F 2 "" H 1100 6075 50  0001 C CNN
F 3 "" H 1100 6075 50  0001 C CNN
	1    1100 6075
	1    0    0    -1  
$EndComp
Wire Wire Line
	1050 6150 1050 6100
Wire Wire Line
	1050 6100 1100 6100
Wire Wire Line
	1150 6100 1150 6150
Wire Wire Line
	1100 6075 1100 6100
Connection ~ 1100 6100
Wire Wire Line
	1100 6100 1150 6100
NoConn ~ 2025 6800
NoConn ~ 2025 6700
$Comp
L Device:D_Schottky D1
U 1 1 5E206A17
P 3375 1700
F 0 "D1" V 3329 1779 50  0000 L CNN
F 1 "SS14" V 3420 1779 50  0000 L CNN
F 2 "Diodes_SMD:D_SMA" H 3375 1700 50  0001 C CNN
F 3 "~" H 3375 1700 50  0001 C CNN
	1    3375 1700
	1    0    0    -1  
$EndComp
Wire Wire Line
	7600 3475 7500 3475
Wire Wire Line
	7600 3075 7500 3075
Text GLabel 7600 1175 2    50   Input ~ 0
RXD1
Text GLabel 7600 1275 2    50   Input ~ 0
TXD1
$Comp
L Device:R R3
U 1 1 5E24CA40
P 1700 6600
F 0 "R3" V 1850 6500 50  0000 C CNN
F 1 "1K" V 1850 6700 50  0000 C CNN
F 2 "Resistors_SMD:R_0603_HandSoldering" V 1630 6600 50  0001 C CNN
F 3 "~" H 1700 6600 50  0001 C CNN
	1    1700 6600
	0    1    1    0   
$EndComp
Text GLabel 1475 6600 0    50   Input ~ 0
TXD1
Text GLabel 1475 6700 0    50   Input ~ 0
RXD1
Wire Wire Line
	1475 6600 1550 6600
Wire Wire Line
	1850 6600 1900 6600
Wire Wire Line
	1475 6700 1900 6700
Wire Wire Line
	1900 6700 1900 6600
Connection ~ 1900 6600
Wire Wire Line
	1900 6600 2025 6600
$Comp
L conn:Conn_01x03 J2
U 1 1 5E261B2D
P 1200 3875
F 0 "J2" H 1118 4192 50  0000 C CNN
F 1 "ESTOP_CLOSE" H 1275 4100 50  0000 C CNN
F 2 "Connectors_JST:JST_EH_B03B-EH-A_03x2.50mm_Straight" H 1200 3875 50  0001 C CNN
F 3 "~" H 1200 3875 50  0001 C CNN
	1    1200 3875
	-1   0    0    -1  
$EndComp
$Comp
L power:VCC #PWR07
U 1 1 5E262913
P 1525 3700
F 0 "#PWR07" H 1525 3550 50  0001 C CNN
F 1 "VCC" H 1542 3873 50  0000 C CNN
F 2 "" H 1525 3700 50  0001 C CNN
F 3 "" H 1525 3700 50  0001 C CNN
	1    1525 3700
	1    0    0    -1  
$EndComp
$Comp
L power:GND #PWR08
U 1 1 5E263382
P 1525 4050
F 0 "#PWR08" H 1525 3800 50  0001 C CNN
F 1 "GND" H 1530 3877 50  0000 C CNN
F 2 "" H 1525 4050 50  0001 C CNN
F 3 "" H 1525 4050 50  0001 C CNN
	1    1525 4050
	-1   0    0    -1  
$EndComp
Wire Wire Line
	1400 3775 1525 3775
Wire Wire Line
	1525 3775 1525 3700
Wire Wire Line
	1400 3975 1525 3975
Wire Wire Line
	1525 3975 1525 4050
Text GLabel 1575 3875 2    50   Input ~ 0
LIMIT_CLOSE
Wire Wire Line
	1400 3875 1575 3875
$Comp
L conn:Conn_01x03 J1
U 1 1 5E27897A
P 1175 4725
F 0 "J1" H 1093 5042 50  0000 C CNN
F 1 "ESTOP_OPEN" H 1250 4950 50  0000 C CNN
F 2 "Connectors_JST:JST_EH_B03B-EH-A_03x2.50mm_Straight" H 1175 4725 50  0001 C CNN
F 3 "~" H 1175 4725 50  0001 C CNN
	1    1175 4725
	-1   0    0    -1  
$EndComp
$Comp
L power:VCC #PWR05
U 1 1 5E278984
P 1500 4550
F 0 "#PWR05" H 1500 4400 50  0001 C CNN
F 1 "VCC" H 1517 4723 50  0000 C CNN
F 2 "" H 1500 4550 50  0001 C CNN
F 3 "" H 1500 4550 50  0001 C CNN
	1    1500 4550
	1    0    0    -1  
$EndComp
$Comp
L power:GND #PWR06
U 1 1 5E27898E
P 1500 4900
F 0 "#PWR06" H 1500 4650 50  0001 C CNN
F 1 "GND" H 1505 4727 50  0000 C CNN
F 2 "" H 1500 4900 50  0001 C CNN
F 3 "" H 1500 4900 50  0001 C CNN
	1    1500 4900
	-1   0    0    -1  
$EndComp
Wire Wire Line
	1375 4625 1500 4625
Wire Wire Line
	1500 4625 1500 4550
Wire Wire Line
	1375 4825 1500 4825
Wire Wire Line
	1500 4825 1500 4900
Text GLabel 1550 4725 2    50   Input ~ 0
LIMIT_OPEN
Wire Wire Line
	1375 4725 1550 4725
$Comp
L conn:Conn_01x01 J4
U 1 1 5E280CE8
P 2750 3850
F 0 "J4" H 2668 3625 50  0000 C CNN
F 1 "TOUCH" H 2668 3716 50  0000 C CNN
F 2 "Pin_Headers:Pin_Header_Straight_1x01_Pitch2.54mm" H 2750 3850 50  0001 C CNN
F 3 "~" H 2750 3850 50  0001 C CNN
	1    2750 3850
	-1   0    0    1   
$EndComp
$Comp
L Device:R R4
U 1 1 5E282034
P 3200 3850
F 0 "R4" V 3100 3725 50  0000 C CNN
F 1 "1M" V 3100 3950 50  0000 C CNN
F 2 "Resistors_SMD:R_0603_HandSoldering" V 3130 3850 50  0001 C CNN
F 3 "~" H 3200 3850 50  0001 C CNN
	1    3200 3850
	0    1    1    0   
$EndComp
Text GLabel 3450 3850 2    50   Input ~ 0
TOUCH_PIN_CHARGE
Text GLabel 3450 3975 2    50   Input ~ 0
TOUCH_PIN_SENSE
Wire Wire Line
	2950 3850 3000 3850
Wire Wire Line
	3350 3850 3450 3850
Wire Wire Line
	3450 3975 3000 3975
Wire Wire Line
	3000 3975 3000 3850
Connection ~ 3000 3850
Wire Wire Line
	3000 3850 3050 3850
$Comp
L conn:Conn_01x04 J7
U 1 1 5E2B109D
P 5125 4750
F 0 "J7" H 5043 5067 50  0000 C CNN
F 1 "Grove" H 5043 4976 50  0000 C CNN
F 2 "Connectors_JST:JST_PH_B4B-PH-K_04x2.00mm_Straight" H 5125 4750 50  0001 C CNN
F 3 "~" H 5125 4750 50  0001 C CNN
	1    5125 4750
	-1   0    0    -1  
$EndComp
Text GLabel 7625 2025 2    50   Input ~ 0
PC0
Text GLabel 7625 2125 2    50   Input ~ 0
PC1
Text GLabel 7625 2225 2    50   Input ~ 0
PC2
Text GLabel 7625 2325 2    50   Input ~ 0
PC3
Text GLabel 7625 2425 2    50   Input ~ 0
PC4
Text GLabel 7625 2525 2    50   Input ~ 0
PC5
Text GLabel 8200 2375 2    50   Input ~ 0
SDA
Text GLabel 8200 2475 2    50   Input ~ 0
SCL
Wire Wire Line
	7500 2025 7625 2025
Wire Wire Line
	7500 2125 7625 2125
Wire Wire Line
	7500 2225 7625 2225
Wire Wire Line
	7500 2325 7625 2325
Wire Wire Line
	7500 2425 7550 2425
Wire Wire Line
	7500 2525 7550 2525
Wire Wire Line
	8200 2375 8125 2375
Wire Wire Line
	7550 2375 7550 2425
Connection ~ 7550 2425
Wire Wire Line
	7550 2425 7625 2425
Wire Wire Line
	8200 2475 7950 2475
Wire Wire Line
	7550 2475 7550 2525
Connection ~ 7550 2525
Wire Wire Line
	7550 2525 7625 2525
Text GLabel 5425 4650 2    50   Input ~ 0
SCL
Text GLabel 5425 4750 2    50   Input ~ 0
SDA
$Comp
L power:GND #PWR016
U 1 1 5E33795B
P 5425 5000
F 0 "#PWR016" H 5425 4750 50  0001 C CNN
F 1 "GND" H 5430 4827 50  0000 C CNN
F 2 "" H 5425 5000 50  0001 C CNN
F 3 "" H 5425 5000 50  0001 C CNN
	1    5425 5000
	-1   0    0    -1  
$EndComp
$Comp
L power:VCC #PWR021
U 1 1 5E3383D0
P 5750 4750
F 0 "#PWR021" H 5750 4600 50  0001 C CNN
F 1 "VCC" H 5767 4923 50  0000 C CNN
F 2 "" H 5750 4750 50  0001 C CNN
F 3 "" H 5750 4750 50  0001 C CNN
	1    5750 4750
	1    0    0    -1  
$EndComp
Wire Wire Line
	5325 4950 5425 4950
Wire Wire Line
	5425 4950 5425 5000
Wire Wire Line
	5325 4850 5750 4850
Wire Wire Line
	5750 4850 5750 4750
Wire Wire Line
	5425 4750 5325 4750
Wire Wire Line
	5425 4650 5325 4650
$Comp
L conn:Conn_01x06 J8
U 1 1 5E3661B4
P 5175 6800
F 0 "J8" H 5093 7217 50  0000 C CNN
F 1 "GND" H 5093 7126 50  0000 C CNN
F 2 "Pin_Headers:Pin_Header_Straight_1x06_Pitch2.54mm" H 5175 6800 50  0001 C CNN
F 3 "~" H 5175 6800 50  0001 C CNN
	1    5175 6800
	-1   0    0    -1  
$EndComp
$Comp
L conn:Conn_01x06 J9
U 1 1 5E36FAD0
P 5700 6800
F 0 "J9" H 5618 7217 50  0000 C CNN
F 1 "SIGNAL" H 5618 7126 50  0000 C CNN
F 2 "Pin_Headers:Pin_Header_Straight_1x06_Pitch2.54mm" H 5700 6800 50  0001 C CNN
F 3 "~" H 5700 6800 50  0001 C CNN
	1    5700 6800
	-1   0    0    -1  
$EndComp
$Comp
L conn:Conn_01x06 J11
U 1 1 5E370F5D
P 6325 6800
F 0 "J11" H 6243 7217 50  0000 C CNN
F 1 "VCC" H 6243 7126 50  0000 C CNN
F 2 "Pin_Headers:Pin_Header_Straight_1x06_Pitch2.54mm" H 6325 6800 50  0001 C CNN
F 3 "~" H 6325 6800 50  0001 C CNN
	1    6325 6800
	-1   0    0    -1  
$EndComp
Text GLabel 5975 6600 2    50   Input ~ 0
PC0
Text GLabel 5975 6700 2    50   Input ~ 0
PC1
Text GLabel 5975 6800 2    50   Input ~ 0
PC2
Text GLabel 5975 6900 2    50   Input ~ 0
PC3
Text GLabel 5975 7000 2    50   Input ~ 0
PC4
Text GLabel 5975 7100 2    50   Input ~ 0
PC5
$Comp
L power:VCC #PWR023
U 1 1 5E3A774D
P 6625 6500
F 0 "#PWR023" H 6625 6350 50  0001 C CNN
F 1 "VCC" H 6642 6673 50  0000 C CNN
F 2 "" H 6625 6500 50  0001 C CNN
F 3 "" H 6625 6500 50  0001 C CNN
	1    6625 6500
	1    0    0    -1  
$EndComp
$Comp
L power:GND #PWR017
U 1 1 5E3A8151
P 5425 7200
F 0 "#PWR017" H 5425 6950 50  0001 C CNN
F 1 "GND" H 5430 7027 50  0000 C CNN
F 2 "" H 5425 7200 50  0001 C CNN
F 3 "" H 5425 7200 50  0001 C CNN
	1    5425 7200
	-1   0    0    -1  
$EndComp
Wire Wire Line
	5375 6600 5425 6600
Wire Wire Line
	5425 6600 5425 6700
Wire Wire Line
	5375 6700 5425 6700
Connection ~ 5425 6700
Wire Wire Line
	5425 6700 5425 6800
Wire Wire Line
	5375 6800 5425 6800
Connection ~ 5425 6800
Wire Wire Line
	5425 6800 5425 6900
Wire Wire Line
	5375 6900 5425 6900
Connection ~ 5425 6900
Wire Wire Line
	5425 6900 5425 7000
Wire Wire Line
	5375 7000 5425 7000
Connection ~ 5425 7000
Wire Wire Line
	5425 7000 5425 7100
Wire Wire Line
	5375 7100 5425 7100
Connection ~ 5425 7100
Wire Wire Line
	5425 7100 5425 7200
Wire Wire Line
	5900 6600 5975 6600
Wire Wire Line
	5975 6700 5900 6700
Wire Wire Line
	5975 6800 5900 6800
Wire Wire Line
	5975 6900 5900 6900
Wire Wire Line
	5975 7000 5900 7000
Wire Wire Line
	5975 7100 5900 7100
Wire Wire Line
	6625 6500 6625 6600
Wire Wire Line
	6625 7100 6525 7100
Wire Wire Line
	6525 7000 6625 7000
Connection ~ 6625 7000
Wire Wire Line
	6625 7000 6625 7100
Wire Wire Line
	6525 6900 6625 6900
Connection ~ 6625 6900
Wire Wire Line
	6625 6900 6625 7000
Wire Wire Line
	6525 6800 6625 6800
Connection ~ 6625 6800
Wire Wire Line
	6625 6800 6625 6900
Wire Wire Line
	6525 6700 6625 6700
Connection ~ 6625 6700
Wire Wire Line
	6625 6700 6625 6800
Wire Wire Line
	6525 6600 6625 6600
Connection ~ 6625 6600
Wire Wire Line
	6625 6600 6625 6700
$Comp
L Device:R R6
U 1 1 5E48B047
P 7950 2150
F 0 "R6" V 8025 2275 50  0000 C CNN
F 1 "4,7K" V 8025 2050 50  0000 C CNN
F 2 "Resistors_SMD:R_0603_HandSoldering" V 7880 2150 50  0001 C CNN
F 3 "~" H 7950 2150 50  0001 C CNN
	1    7950 2150
	-1   0    0    1   
$EndComp
$Comp
L Device:R R7
U 1 1 5E48C8B2
P 8125 2150
F 0 "R7" V 8200 2275 50  0000 C CNN
F 1 "4,7K" V 8200 2050 50  0000 C CNN
F 2 "Resistors_SMD:R_0603_HandSoldering" V 8055 2150 50  0001 C CNN
F 3 "~" H 8125 2150 50  0001 C CNN
	1    8125 2150
	-1   0    0    1   
$EndComp
Wire Wire Line
	8125 2300 8125 2375
Connection ~ 8125 2375
$Comp
L power:VCC #PWR027
U 1 1 5E4B1EAE
P 8125 1700
F 0 "#PWR027" H 8125 1550 50  0001 C CNN
F 1 "VCC" H 8142 1873 50  0000 C CNN
F 2 "" H 8125 1700 50  0001 C CNN
F 3 "" H 8125 1700 50  0001 C CNN
	1    8125 1700
	1    0    0    -1  
$EndComp
Wire Wire Line
	8125 2000 8125 1925
Wire Wire Line
	7950 2000 7950 1925
Wire Wire Line
	7950 1925 8125 1925
Connection ~ 8125 1925
Wire Wire Line
	8125 1925 8125 1700
$Comp
L Device:C_Small C1
U 1 1 5E4D7612
P 3325 7075
F 0 "C1" H 3350 7150 50  0000 L CNN
F 1 "100nF" H 3350 7000 50  0000 L CNN
F 2 "Capacitors_SMD:C_0603_HandSoldering" H 3325 7075 50  0001 C CNN
F 3 "~" H 3325 7075 50  0001 C CNN
	1    3325 7075
	-1   0    0    -1  
$EndComp
$Comp
L power:GND #PWR011
U 1 1 5E4D761C
P 3325 7225
F 0 "#PWR011" H 3325 6975 50  0001 C CNN
F 1 "GND" H 3330 7052 50  0000 C CNN
F 2 "" H 3325 7225 50  0001 C CNN
F 3 "" H 3325 7225 50  0001 C CNN
	1    3325 7225
	-1   0    0    -1  
$EndComp
Wire Wire Line
	3325 7175 3325 7225
Wire Wire Line
	3325 6900 3325 6975
Connection ~ 3325 6900
$Comp
L Device:CP C2
U 1 1 5E4F1A12
P 3675 6550
F 0 "C2" H 3793 6596 50  0000 L CNN
F 1 "470uF/25V" H 3793 6505 50  0000 L CNN
F 2 "Capacitors_SMD:CP_Elec_10x10" H 3713 6400 50  0001 C CNN
F 3 "~" H 3675 6550 50  0001 C CNN
	1    3675 6550
	1    0    0    -1  
$EndComp
$Comp
L power:GND #PWR012
U 1 1 5E4F1A1C
P 3675 6725
F 0 "#PWR012" H 3675 6475 50  0001 C CNN
F 1 "GND" H 3675 6575 50  0000 C CNN
F 2 "" H 3675 6725 50  0001 C CNN
F 3 "" H 3675 6725 50  0001 C CNN
	1    3675 6725
	1    0    0    -1  
$EndComp
Wire Wire Line
	3675 6700 3675 6725
Wire Wire Line
	3675 6400 3675 6300
Connection ~ 3675 6300
Wire Wire Line
	3675 6300 3750 6300
$Comp
L conn:Conn_01x02 J6
U 1 1 5E50C3E7
P 4000 2125
F 0 "J6" H 4080 2117 50  0000 L CNN
F 1 "PWR LED" H 4080 2026 50  0000 L CNN
F 2 "Pin_Headers:Pin_Header_Straight_1x02_Pitch2.54mm" H 4000 2125 50  0001 C CNN
F 3 "~" H 4000 2125 50  0001 C CNN
	1    4000 2125
	1    0    0    -1  
$EndComp
$Comp
L Device:R R5
U 1 1 5E50D8C6
P 3775 1900
F 0 "R5" H 3845 1946 50  0000 L CNN
F 1 "510" H 3845 1855 50  0000 L CNN
F 2 "Resistors_SMD:R_0603_HandSoldering" V 3705 1900 50  0001 C CNN
F 3 "~" H 3775 1900 50  0001 C CNN
	1    3775 1900
	1    0    0    -1  
$EndComp
Wire Wire Line
	3775 1700 3775 1750
Connection ~ 3775 1700
$Comp
L power:GND #PWR014
U 1 1 5E51B723
P 3775 2300
F 0 "#PWR014" H 3775 2050 50  0001 C CNN
F 1 "GND" H 3780 2127 50  0000 C CNN
F 2 "" H 3775 2300 50  0001 C CNN
F 3 "" H 3775 2300 50  0001 C CNN
	1    3775 2300
	1    0    0    -1  
$EndComp
Wire Wire Line
	3800 2225 3775 2225
Wire Wire Line
	3775 2225 3775 2300
Wire Wire Line
	3775 2050 3775 2125
Wire Wire Line
	3775 2125 3800 2125
Wire Notes Line
	4750 575  4750 7725
Wire Notes Line
	500  3050 4750 3050
Wire Notes Line
	500  5550 4750 5550
Wire Notes Line
	4750 3875 11175 3875
Wire Notes Line
	9550 575  9550 3875
Wire Notes Line
	9550 2125 11200 2125
$Comp
L conn:Conn_01x03 J15
U 1 1 5E681839
P 10525 2925
F 0 "J15" H 10605 2967 50  0000 L CNN
F 1 "Serial" H 10605 2876 50  0000 L CNN
F 2 "Connectors_JST:JST_EH_B03B-EH-A_03x2.50mm_Straight" H 10525 2925 50  0001 C CNN
F 3 "~" H 10525 2925 50  0001 C CNN
	1    10525 2925
	1    0    0    -1  
$EndComp
$Comp
L conn:Conn_01x05 J3
U 1 1 5E683ACD
P 1775 1600
F 0 "J3" H 1855 1642 50  0000 L CNN
F 1 "PWR/SER" H 1855 1551 50  0000 L CNN
F 2 "suf_connector_ncw:CONN_NCW396-05S" H 1775 1600 50  0001 C CNN
F 3 "~" H 1775 1600 50  0001 C CNN
	1    1775 1600
	1    0    0    -1  
$EndComp
$Comp
L power:GND #PWR04
U 1 1 5E68532E
P 1500 1875
F 0 "#PWR04" H 1500 1625 50  0001 C CNN
F 1 "GND" H 1505 1702 50  0000 C CNN
F 2 "" H 1500 1875 50  0001 C CNN
F 3 "" H 1500 1875 50  0001 C CNN
	1    1500 1875
	1    0    0    -1  
$EndComp
Text GLabel 1450 1600 0    50   Input ~ 0
VMOT
Text GLabel 1450 1400 0    50   Input ~ 0
RXD
Text GLabel 1450 1500 0    50   Input ~ 0
TXD
$Comp
L power:VCC #PWR01
U 1 1 5E687B7F
P 1000 1625
F 0 "#PWR01" H 1000 1475 50  0001 C CNN
F 1 "VCC" H 1017 1798 50  0000 C CNN
F 2 "" H 1000 1625 50  0001 C CNN
F 3 "" H 1000 1625 50  0001 C CNN
	1    1000 1625
	1    0    0    -1  
$EndComp
Wire Wire Line
	1575 1400 1450 1400
Wire Wire Line
	1575 1500 1450 1500
Wire Wire Line
	1575 1600 1450 1600
Wire Wire Line
	1000 1625 1000 1700
Wire Wire Line
	1000 1700 1575 1700
Wire Wire Line
	1575 1800 1500 1800
Wire Wire Line
	1500 1800 1500 1875
Wire Wire Line
	3525 1700 3775 1700
Wire Wire Line
	3225 1700 3075 1700
Text GLabel 10200 2825 0    50   Input ~ 0
RXD
Text GLabel 10200 2925 0    50   Input ~ 0
TXD
Wire Wire Line
	10325 2825 10200 2825
Wire Wire Line
	10325 2925 10200 2925
$Comp
L power:GND #PWR033
U 1 1 5E105C4E
P 10250 3075
F 0 "#PWR033" H 10250 2825 50  0001 C CNN
F 1 "GND" H 10255 2902 50  0000 C CNN
F 2 "" H 10250 3075 50  0001 C CNN
F 3 "" H 10250 3075 50  0001 C CNN
	1    10250 3075
	-1   0    0    -1  
$EndComp
Wire Wire Line
	10325 3025 10250 3025
Wire Wire Line
	10250 3025 10250 3075
$Comp
L conn:Conn_01x04 J10
U 1 1 5E13AC9F
P 6075 4750
F 0 "J10" H 5993 5067 50  0000 C CNN
F 1 "Grove" H 5993 4976 50  0000 C CNN
F 2 "Connectors_JST:JST_PH_B4B-PH-K_04x2.00mm_Straight" H 6075 4750 50  0001 C CNN
F 3 "~" H 6075 4750 50  0001 C CNN
	1    6075 4750
	-1   0    0    -1  
$EndComp
Text GLabel 6375 4650 2    50   Input ~ 0
SCL
Text GLabel 6375 4750 2    50   Input ~ 0
SDA
$Comp
L power:GND #PWR022
U 1 1 5E13ACAB
P 6375 5000
F 0 "#PWR022" H 6375 4750 50  0001 C CNN
F 1 "GND" H 6380 4827 50  0000 C CNN
F 2 "" H 6375 5000 50  0001 C CNN
F 3 "" H 6375 5000 50  0001 C CNN
	1    6375 5000
	-1   0    0    -1  
$EndComp
$Comp
L power:VCC #PWR024
U 1 1 5E13ACB5
P 6700 4750
F 0 "#PWR024" H 6700 4600 50  0001 C CNN
F 1 "VCC" H 6717 4923 50  0000 C CNN
F 2 "" H 6700 4750 50  0001 C CNN
F 3 "" H 6700 4750 50  0001 C CNN
	1    6700 4750
	1    0    0    -1  
$EndComp
Wire Wire Line
	6275 4950 6375 4950
Wire Wire Line
	6375 4950 6375 5000
Wire Wire Line
	6275 4850 6700 4850
Wire Wire Line
	6700 4850 6700 4750
Wire Wire Line
	6375 4750 6275 4750
Wire Wire Line
	6375 4650 6275 4650
$Comp
L conn:Conn_01x04 J12
U 1 1 5E1472E1
P 7050 4750
F 0 "J12" H 6968 5067 50  0000 C CNN
F 1 "Grove" H 6968 4976 50  0000 C CNN
F 2 "Connectors_JST:JST_PH_B4B-PH-K_04x2.00mm_Straight" H 7050 4750 50  0001 C CNN
F 3 "~" H 7050 4750 50  0001 C CNN
	1    7050 4750
	-1   0    0    -1  
$EndComp
Text GLabel 7350 4650 2    50   Input ~ 0
SCL
Text GLabel 7350 4750 2    50   Input ~ 0
SDA
$Comp
L power:GND #PWR025
U 1 1 5E1472ED
P 7350 5000
F 0 "#PWR025" H 7350 4750 50  0001 C CNN
F 1 "GND" H 7355 4827 50  0000 C CNN
F 2 "" H 7350 5000 50  0001 C CNN
F 3 "" H 7350 5000 50  0001 C CNN
	1    7350 5000
	-1   0    0    -1  
$EndComp
$Comp
L power:VCC #PWR026
U 1 1 5E1472F7
P 7675 4750
F 0 "#PWR026" H 7675 4600 50  0001 C CNN
F 1 "VCC" H 7692 4923 50  0000 C CNN
F 2 "" H 7675 4750 50  0001 C CNN
F 3 "" H 7675 4750 50  0001 C CNN
	1    7675 4750
	1    0    0    -1  
$EndComp
Wire Wire Line
	7250 4950 7350 4950
Wire Wire Line
	7350 4950 7350 5000
Wire Wire Line
	7250 4850 7675 4850
Wire Wire Line
	7675 4850 7675 4750
Wire Wire Line
	7350 4750 7250 4750
Wire Wire Line
	7350 4650 7250 4650
$Comp
L conn:Conn_01x04 J13
U 1 1 5E147307
P 8000 4750
F 0 "J13" H 7918 5067 50  0000 C CNN
F 1 "Grove" H 7918 4976 50  0000 C CNN
F 2 "Connectors_JST:JST_PH_B4B-PH-K_04x2.00mm_Straight" H 8000 4750 50  0001 C CNN
F 3 "~" H 8000 4750 50  0001 C CNN
	1    8000 4750
	-1   0    0    -1  
$EndComp
Text GLabel 8300 4650 2    50   Input ~ 0
SCL
Text GLabel 8300 4750 2    50   Input ~ 0
SDA
$Comp
L power:GND #PWR028
U 1 1 5E147313
P 8300 5000
F 0 "#PWR028" H 8300 4750 50  0001 C CNN
F 1 "GND" H 8305 4827 50  0000 C CNN
F 2 "" H 8300 5000 50  0001 C CNN
F 3 "" H 8300 5000 50  0001 C CNN
	1    8300 5000
	-1   0    0    -1  
$EndComp
$Comp
L power:VCC #PWR030
U 1 1 5E14731D
P 8625 4750
F 0 "#PWR030" H 8625 4600 50  0001 C CNN
F 1 "VCC" H 8642 4923 50  0000 C CNN
F 2 "" H 8625 4750 50  0001 C CNN
F 3 "" H 8625 4750 50  0001 C CNN
	1    8625 4750
	1    0    0    -1  
$EndComp
Wire Wire Line
	8200 4950 8300 4950
Wire Wire Line
	8300 4950 8300 5000
Wire Wire Line
	8200 4850 8625 4850
Wire Wire Line
	8625 4850 8625 4750
Wire Wire Line
	8300 4750 8200 4750
Wire Wire Line
	8300 4650 8200 4650
Text Notes 600  725  0    79   ~ 0
Power Input
Text Notes 4825 750  0    79   ~ 0
MCU
Text Notes 9650 750  0    79   ~ 0
ISP
Text Notes 9625 2300 0    79   ~ 0
Serial
Text Notes 4875 4150 0    79   ~ 0
I2C (Grove)
Text Notes 550  3275 0    79   ~ 0
TTS Sensors
Text Notes 575  5750 0    79   ~ 0
Stepper Control
Wire Wire Line
	7550 2375 8125 2375
Wire Wire Line
	7950 2300 7950 2475
Connection ~ 7950 2475
Wire Wire Line
	7950 2475 7550 2475
$EndSCHEMATC
